ID	ColdDesert_EB019	ColdDesert_EB020	ColdDesert_EB021	ColdDesert_EB024	ColdDesert_EB026	HotDesert_MD3	HotDesert_SF2	HotDesert_SV1	TropicalForest_AR3	TropicalForest_PE6	TemperateDecidousForest_CL1	TemperateConiferousForest_DF1	TemperateGrassland_KP1	BorealForest_BZ1	ArcticTundra_TL1
k__Bacteria	100.0	100.0	100.0	100.0	100.0	100.0	100.0	100.0	100.0	100.0	100.0	100.0	100.0	100.0	100.0
k__Bacteria|p__Acidobacteria	0	6.07537	0	0	0	0	4.43356	1.31286	18.43641	5.8178	9.9818	12.90411	5.95172	42.96488	29.85402
k__Bacteria|p__Acidobacteria|c__Acidobacteriia	0	6.07537	0	0	0	0	4.43356	1.31286	18.43641	5.8178	9.9818	12.90411	5.95172	42.96488	29.85402
k__Bacteria|p__Acidobacteria|c__Acidobacteriia|o__Acidobacteriales	0	6.07537	0	0	0	0	4.43356	1.31286	18.43641	5.8178	9.9818	12.90411	5.95172	42.96488	29.85402
k__Bacteria|p__Acidobacteria|c__Acidobacteriia|o__Acidobacteriales|f__Acidobacteriaceae	0	6.07537	0	0	0	0	4.43356	1.31286	18.43641	5.8178	9.9818	12.90411	5.95172	42.96488	29.85402
k__Bacteria|p__Acidobacteria|c__Acidobacteriia|o__Acidobacteriales|f__Acidobacteriaceae|g__Acidobacteriaceae_unclassified	0	6.07537	0	0	0	0	4.43356	1.31286	18.43641	5.8178	7.09602	7.37339	5.95172	24.33289	16.90764
k__Bacteria|p__Acidobacteria|c__Acidobacteriia|o__Acidobacteriales|f__Acidobacteriaceae|g__Granulicella	0	0	0	0	0	0	0	0	0	0	2.88578	5.53072	0	18.63199	12.94638
k__Bacteria|p__Acidobacteria|c__Acidobacteriia|o__Acidobacteriales|f__Acidobacteriaceae|g__Granulicella|s__Granulicella_unclassified	0	0	0	0	0	0	0	0	0	0	2.88578	5.53072	0	18.63199	12.94638
k__Bacteria|p__Actinobacteria	6.3543	70.95686	80.92994	82.71562	0.79334	64.60861	57.44184	91.77177	0	10.28652	0	0	54.40327	0	0
k__Bacteria|p__Actinobacteria|c__Actinobacteria	6.3543	70.95686	80.92994	82.71562	0.79334	64.60861	57.44184	91.77177	0	10.28652	0	0	54.40327	0	0
k__Bacteria|p__Actinobacteria|c__Actinobacteria|o__Actinomycetales	0.67696	11.94847	0	5.47243	0	52.87226	37.86624	82.18186	0	10.28652	0	0	48.40437	0	0
k__Bacteria|p__Actinobacteria|c__Actinobacteria|o__Actinomycetales|f__Geodermatophilaceae	0.11254	0	0	0.21143	0	44.09681	21.07351	40.48994	0	0	0	0	0	0	0
k__Bacteria|p__Actinobacteria|c__Actinobacteria|o__Actinomycetales|f__Geodermatophilaceae|g__Geodermatophilaceae_unclassified	0.11254	0	0	0.21143	0	15.9143	18.70819	26.14162	0	0	0	0	0	0	0
k__Bacteria|p__Actinobacteria|c__Actinobacteria|o__Actinomycetales|f__Geodermatophilaceae|g__Geodermatophilus	0	0	0	0	0	28.18251	2.36532	14.34831	0	0	0	0	0	0	0
k__Bacteria|p__Actinobacteria|c__Actinobacteria|o__Actinomycetales|f__Geodermatophilaceae|g__Geodermatophilus|s__Geodermatophilus_obscurus	0	0	0	0	0	28.18251	2.36532	14.34831	0	0	0	0	0	0	0
k__Bacteria|p__Actinobacteria|c__Actinobacteria|o__Actinomycetales|f__Geodermatophilaceae|g__Geodermatophilus|s__Geodermatophilus_obscurus|t__GCF_000025345	0	0	0	0	0	28.18251	2.36532	14.34831	0	0	0	0	0	0	0
k__Bacteria|p__Actinobacteria|c__Actinobacteria|o__Actinomycetales|f__Microbacteriaceae	0	0	0	0	0	0	0	0	0	3.71298	0	0	0	0	0
k__Bacteria|p__Actinobacteria|c__Actinobacteria|o__Actinomycetales|f__Microbacteriaceae|g__Leifsonia	0	0	0	0	0	0	0	0	0	3.71298	0	0	0	0	0
k__Bacteria|p__Actinobacteria|c__Actinobacteria|o__Actinomycetales|f__Microbacteriaceae|g__Leifsonia|s__Leifsonia_unclassified	0	0	0	0	0	0	0	0	0	3.71298	0	0	0	0	0
k__Bacteria|p__Actinobacteria|c__Actinobacteria|o__Actinomycetales|f__Micromonosporaceae	0	0	0	0	0	8.77545	14.59907	36.06948	0	0	0	0	48.40437	0	0
k__Bacteria|p__Actinobacteria|c__Actinobacteria|o__Actinomycetales|f__Micromonosporaceae|g__Actinoplanes	0	0	0	0	0	8.77545	14.59907	35.57642	0	0	0	0	48.40437	0	0
k__Bacteria|p__Actinobacteria|c__Actinobacteria|o__Actinomycetales|f__Micromonosporaceae|g__Actinoplanes|s__Actinoplanes_unclassified	0	0	0	0	0	8.77545	14.59907	35.57642	0	0	0	0	48.40437	0	0
k__Bacteria|p__Actinobacteria|c__Actinobacteria|o__Actinomycetales|f__Micromonosporaceae|g__Salinispora	0	0	0	0	0	0	0	0.49306	0	0	0	0	0	0	0
k__Bacteria|p__Actinobacteria|c__Actinobacteria|o__Actinomycetales|f__Micromonosporaceae|g__Salinispora|s__Salinispora_unclassified	0	0	0	0	0	0	0	0.49306	0	0	0	0	0	0	0
k__Bacteria|p__Actinobacteria|c__Actinobacteria|o__Actinomycetales|f__Nocardioidaceae	0	3.74374	0	5.261	0	0	1.22866	5.62244	0	0	0	0	0	0	0
k__Bacteria|p__Actinobacteria|c__Actinobacteria|o__Actinomycetales|f__Nocardioidaceae|g__Kribbella	0	0	0	0	0	0	1.22866	5.62244	0	0	0	0	0	0	0
k__Bacteria|p__Actinobacteria|c__Actinobacteria|o__Actinomycetales|f__Nocardioidaceae|g__Kribbella|s__Kribbella_unclassified	0	0	0	0	0	0	1.22866	5.62244	0	0	0	0	0	0	0
k__Bacteria|p__Actinobacteria|c__Actinobacteria|o__Actinomycetales|f__Nocardioidaceae|g__Nocardioides	0	3.74374	0	5.261	0	0	0	0	0	0	0	0	0	0	0
k__Bacteria|p__Actinobacteria|c__Actinobacteria|o__Actinomycetales|f__Nocardioidaceae|g__Nocardioides|s__Nocardioides_unclassified	0	3.74374	0	5.261	0	0	0	0	0	0	0	0	0	0	0
k__Bacteria|p__Actinobacteria|c__Actinobacteria|o__Actinomycetales|f__Propionibacteriaceae	0.56442	8.20473	0	0	0	0	0	0	0	6.57355	0	0	0	0	0
k__Bacteria|p__Actinobacteria|c__Actinobacteria|o__Actinomycetales|f__Propionibacteriaceae|g__Propionibacteriaceae_unclassified	0.56442	8.20473	0	0	0	0	0	0	0	6.57355	0	0	0	0	0
k__Bacteria|p__Actinobacteria|c__Actinobacteria|o__Actinomycetales|f__Streptomycetaceae	0	0	0	0	0	0	0.965	0	0	0	0	0	0	0	0
k__Bacteria|p__Actinobacteria|c__Actinobacteria|o__Actinomycetales|f__Streptomycetaceae|g__Streptomyces	0	0	0	0	0	0	0.965	0	0	0	0	0	0	0	0
k__Bacteria|p__Actinobacteria|c__Actinobacteria|o__Actinomycetales|f__Streptomycetaceae|g__Streptomyces|s__Streptomyces_chartreusis	0	0	0	0	0	0	0.965	0	0	0	0	0	0	0	0
k__Bacteria|p__Actinobacteria|c__Actinobacteria|o__Actinomycetales|f__Streptomycetaceae|g__Streptomyces|s__Streptomyces_chartreusis|t__Streptomyces_chartreusis_unclassified	0	0	0	0	0	0	0.965	0	0	0	0	0	0	0	0
k__Bacteria|p__Actinobacteria|c__Actinobacteria|o__Solirubrobacterales	5.67734	59.00839	80.92994	77.24319	0.79334	11.73635	19.5756	9.58991	0	0	0	0	5.9989	0	0
k__Bacteria|p__Actinobacteria|c__Actinobacteria|o__Solirubrobacterales|f__Solirubrobacterales_unclassified	5.67734	59.00839	80.92994	77.24319	0.79334	11.73635	19.5756	9.58991	0	0	0	0	5.9989	0	0
k__Bacteria|p__Bacteroidetes	93.38684	0	0	0.67354	12.37378	0	0	0	0	0	0	0	0	0	0
k__Bacteria|p__Bacteroidetes|c__Bacteroidia	0.5982	0	0	0	0	0	0	0	0	0	0	0	0	0	0
k__Bacteria|p__Bacteroidetes|c__Bacteroidia|o__Bacteroidales	0.5982	0	0	0	0	0	0	0	0	0	0	0	0	0	0
k__Bacteria|p__Bacteroidetes|c__Bacteroidia|o__Bacteroidales|f__Prevotellaceae	0.5982	0	0	0	0	0	0	0	0	0	0	0	0	0	0
k__Bacteria|p__Bacteroidetes|c__Bacteroidia|o__Bacteroidales|f__Prevotellaceae|g__Prevotella	0.5982	0	0	0	0	0	0	0	0	0	0	0	0	0	0
k__Bacteria|p__Bacteroidetes|c__Bacteroidia|o__Bacteroidales|f__Prevotellaceae|g__Prevotella|s__Prevotella_nigrescens	0.23382	0	0	0	0	0	0	0	0	0	0	0	0	0	0
k__Bacteria|p__Bacteroidetes|c__Bacteroidia|o__Bacteroidales|f__Prevotellaceae|g__Prevotella|s__Prevotella_nigrescens|t__Prevotella_nigrescens_unclassified	0.23382	0	0	0	0	0	0	0	0	0	0	0	0	0	0
k__Bacteria|p__Bacteroidetes|c__Bacteroidia|o__Bacteroidales|f__Prevotellaceae|g__Prevotella|s__Prevotella_oris	0.36438	0	0	0	0	0	0	0	0	0	0	0	0	0	0
k__Bacteria|p__Bacteroidetes|c__Bacteroidia|o__Bacteroidales|f__Prevotellaceae|g__Prevotella|s__Prevotella_oris|t__Prevotella_oris_unclassified	0.36438	0	0	0	0	0	0	0	0	0	0	0	0	0	0
k__Bacteria|p__Bacteroidetes|c__Cytophagia	0	0	0	0.67354	0	0	0	0	0	0	0	0	0	0	0
k__Bacteria|p__Bacteroidetes|c__Cytophagia|o__Cytophagales	0	0	0	0.67354	0	0	0	0	0	0	0	0	0	0	0
k__Bacteria|p__Bacteroidetes|c__Cytophagia|o__Cytophagales|f__Cytophagaceae	0	0	0	0.67354	0	0	0	0	0	0	0	0	0	0	0
k__Bacteria|p__Bacteroidetes|c__Cytophagia|o__Cytophagales|f__Cytophagaceae|g__Hymenobacter	0	0	0	0.67354	0	0	0	0	0	0	0	0	0	0	0
k__Bacteria|p__Bacteroidetes|c__Cytophagia|o__Cytophagales|f__Cytophagaceae|g__Hymenobacter|s__Hymenobacter_unclassified	0	0	0	0.67354	0	0	0	0	0	0	0	0	0	0	0
k__Bacteria|p__Bacteroidetes|c__Flavobacteriia	92.78864	0	0	0	12.37378	0	0	0	0	0	0	0	0	0	0
k__Bacteria|p__Bacteroidetes|c__Flavobacteriia|o__Flavobacteriales	92.78864	0	0	0	12.37378	0	0	0	0	0	0	0	0	0	0
k__Bacteria|p__Bacteroidetes|c__Flavobacteriia|o__Flavobacteriales|f__Flavobacteriaceae	92.78864	0	0	0	12.37378	0	0	0	0	0	0	0	0	0	0
k__Bacteria|p__Bacteroidetes|c__Flavobacteriia|o__Flavobacteriales|f__Flavobacteriaceae|g__Gillisia	92.78864	0	0	0	12.37378	0	0	0	0	0	0	0	0	0	0
k__Bacteria|p__Bacteroidetes|c__Flavobacteriia|o__Flavobacteriales|f__Flavobacteriaceae|g__Gillisia|s__Gillisia_limnaea	0.41349	0	0	0	0	0	0	0	0	0	0	0	0	0	0
k__Bacteria|p__Bacteroidetes|c__Flavobacteriia|o__Flavobacteriales|f__Flavobacteriaceae|g__Gillisia|s__Gillisia_limnaea|t__GCF_000243235	0.41349	0	0	0	0	0	0	0	0	0	0	0	0	0	0
k__Bacteria|p__Bacteroidetes|c__Flavobacteriia|o__Flavobacteriales|f__Flavobacteriaceae|g__Gillisia|s__Gillisia_unclassified	92.37514	0	0	0	12.37378	0	0	0	0	0	0	0	0	0	0
k__Bacteria|p__Chlorobi	0	0	0	0	0	0	0	0	0	0	0	0	0	0	5.37508
k__Bacteria|p__Chlorobi|c__Chlorobia	0	0	0	0	0	0	0	0	0	0	0	0	0	0	5.37508
k__Bacteria|p__Chlorobi|c__Chlorobia|o__Chlorobiales	0	0	0	0	0	0	0	0	0	0	0	0	0	0	5.37508
k__Bacteria|p__Chlorobi|c__Chlorobia|o__Chlorobiales|f__Chlorobiaceae	0	0	0	0	0	0	0	0	0	0	0	0	0	0	5.37508
k__Bacteria|p__Chlorobi|c__Chlorobia|o__Chlorobiales|f__Chlorobiaceae|g__Chlorobium	0	0	0	0	0	0	0	0	0	0	0	0	0	0	5.37508
k__Bacteria|p__Chlorobi|c__Chlorobia|o__Chlorobiales|f__Chlorobiaceae|g__Chlorobium|s__Chlorobium_phaeobacteroides	0	0	0	0	0	0	0	0	0	0	0	0	0	0	5.37508
k__Bacteria|p__Chlorobi|c__Chlorobia|o__Chlorobiales|f__Chlorobiaceae|g__Chlorobium|s__Chlorobium_phaeobacteroides|t__Chlorobium_phaeobacteroides_unclassified	0	0	0	0	0	0	0	0	0	0	0	0	0	0	5.37508
k__Bacteria|p__Cyanobacteria	0	0	0	6.8669	50.69585	35.39139	37.50174	3.40966	0	0	0	0	0	0	0
k__Bacteria|p__Cyanobacteria|c__Cyanobacteria_noname	0	0	0	6.8669	50.69585	35.39139	37.50174	3.40966	0	0	0	0	0	0	0
k__Bacteria|p__Cyanobacteria|c__Cyanobacteria_noname|o__Oscillatoriales	0	0	0	6.8669	50.69585	35.39139	37.50174	3.40966	0	0	0	0	0	0	0
k__Bacteria|p__Cyanobacteria|c__Cyanobacteria_noname|o__Oscillatoriales|f__Oscillatoriales_noname	0	0	0	6.8669	50.69585	35.39139	37.50174	3.40966	0	0	0	0	0	0	0
k__Bacteria|p__Cyanobacteria|c__Cyanobacteria_noname|o__Oscillatoriales|f__Oscillatoriales_noname|g__Microcoleus	0	0	0	0	10.13894	31.42402	25.55806	2.01012	0	0	0	0	0	0	0
k__Bacteria|p__Cyanobacteria|c__Cyanobacteria_noname|o__Oscillatoriales|f__Oscillatoriales_noname|g__Microcoleus|s__Microcoleus_unclassified	0	0	0	0	0	24.41727	0.22804	0	0	0	0	0	0	0	0
k__Bacteria|p__Cyanobacteria|c__Cyanobacteria_noname|o__Oscillatoriales|f__Oscillatoriales_noname|g__Microcoleus|s__Microcoleus_vaginatus	0	0	0	0	10.13894	7.00675	25.33002	2.01012	0	0	0	0	0	0	0
k__Bacteria|p__Cyanobacteria|c__Cyanobacteria_noname|o__Oscillatoriales|f__Oscillatoriales_noname|g__Microcoleus|s__Microcoleus_vaginatus|t__GCF_000214075	0	0	0	0	10.13894	7.00675	25.33002	2.01012	0	0	0	0	0	0	0
k__Bacteria|p__Cyanobacteria|c__Cyanobacteria_noname|o__Oscillatoriales|f__Oscillatoriales_noname|g__Oscillatoria	0	0	0	0	40.55691	3.96737	11.94368	1.39954	0	0	0	0	0	0	0
k__Bacteria|p__Cyanobacteria|c__Cyanobacteria_noname|o__Oscillatoriales|f__Oscillatoriales_noname|g__Oscillatoria|s__Oscillatoria_nigro_viridis	0	0	0	0	23.30528	3.42257	11.94368	0.96907	0	0	0	0	0	0	0
k__Bacteria|p__Cyanobacteria|c__Cyanobacteria_noname|o__Oscillatoriales|f__Oscillatoriales_noname|g__Oscillatoria|s__Oscillatoria_nigro_viridis|t__GCF_000317475	0	0	0	0	23.30528	3.42257	11.94368	0.96907	0	0	0	0	0	0	0
k__Bacteria|p__Cyanobacteria|c__Cyanobacteria_noname|o__Oscillatoriales|f__Oscillatoriales_noname|g__Oscillatoria|s__Oscillatoria_unclassified	0	0	0	0	17.25163	0.5448	0	0.43047	0	0	0	0	0	0	0
k__Bacteria|p__Cyanobacteria|c__Cyanobacteria_noname|o__Oscillatoriales|f__Oscillatoriales_noname|g__Pseudanabaena	0	0	0	6.8669	0	0	0	0	0	0	0	0	0	0	0
k__Bacteria|p__Cyanobacteria|c__Cyanobacteria_noname|o__Oscillatoriales|f__Oscillatoriales_noname|g__Pseudanabaena|s__Pseudanabaena_unclassified	0	0	0	6.8669	0	0	0	0	0	0	0	0	0	0	0
k__Bacteria|p__Firmicutes	0.06863	0	0	0	0	0	0	0	0	0	0	0	0	0	0
k__Bacteria|p__Firmicutes|c__Clostridia	0.06863	0	0	0	0	0	0	0	0	0	0	0	0	0	0
k__Bacteria|p__Firmicutes|c__Clostridia|o__Clostridiales	0.06863	0	0	0	0	0	0	0	0	0	0	0	0	0	0
k__Bacteria|p__Firmicutes|c__Clostridia|o__Clostridiales|f__Eubacteriaceae	0.06863	0	0	0	0	0	0	0	0	0	0	0	0	0	0
k__Bacteria|p__Firmicutes|c__Clostridia|o__Clostridiales|f__Eubacteriaceae|g__Eubacterium	0.06863	0	0	0	0	0	0	0	0	0	0	0	0	0	0
k__Bacteria|p__Firmicutes|c__Clostridia|o__Clostridiales|f__Eubacteriaceae|g__Eubacterium|s__Eubacterium_brachy	0.06863	0	0	0	0	0	0	0	0	0	0	0	0	0	0
k__Bacteria|p__Firmicutes|c__Clostridia|o__Clostridiales|f__Eubacteriaceae|g__Eubacterium|s__Eubacterium_brachy|t__GCF_000488855	0.06863	0	0	0	0	0	0	0	0	0	0	0	0	0	0
k__Bacteria|p__Fusobacteria	0.19023	0	0	0	0	0	0	0	0	0	0	0	0	0	0
k__Bacteria|p__Fusobacteria|c__Fusobacteriia	0.19023	0	0	0	0	0	0	0	0	0	0	0	0	0	0
k__Bacteria|p__Fusobacteria|c__Fusobacteriia|o__Fusobacteriales	0.19023	0	0	0	0	0	0	0	0	0	0	0	0	0	0
k__Bacteria|p__Fusobacteria|c__Fusobacteriia|o__Fusobacteriales|f__Fusobacteriaceae	0.19023	0	0	0	0	0	0	0	0	0	0	0	0	0	0
k__Bacteria|p__Fusobacteria|c__Fusobacteriia|o__Fusobacteriales|f__Fusobacteriaceae|g__Fusobacterium	0.19023	0	0	0	0	0	0	0	0	0	0	0	0	0	0
k__Bacteria|p__Fusobacteria|c__Fusobacteriia|o__Fusobacteriales|f__Fusobacteriaceae|g__Fusobacterium|s__Fusobacterium_nucleatum	0.19023	0	0	0	0	0	0	0	0	0	0	0	0	0	0
k__Bacteria|p__Fusobacteria|c__Fusobacteriia|o__Fusobacteriales|f__Fusobacteriaceae|g__Fusobacterium|s__Fusobacterium_nucleatum|t__Fusobacterium_nucleatum_unclassified	0.19023	0	0	0	0	0	0	0	0	0	0	0	0	0	0
k__Bacteria|p__Proteobacteria	0	22.96777	19.07006	9.74394	36.13704	0	0.62286	3.50571	81.56359	83.89567	90.0182	87.09589	39.64502	57.03512	64.7709
k__Bacteria|p__Proteobacteria|c__Alphaproteobacteria	0	3.12075	0	0	28.64018	0	0	3.03538	43.1815	0	46.87689	20.95014	20.91672	31.79555	64.7709
k__Bacteria|p__Proteobacteria|c__Alphaproteobacteria|o__Caulobacterales	0	3.12075	0	0	28.64018	0	0	2.64493	0	0	0	0	12.22895	0	0
k__Bacteria|p__Proteobacteria|c__Alphaproteobacteria|o__Caulobacterales|f__Caulobacteraceae	0	3.12075	0	0	28.64018	0	0	2.64493	0	0	0	0	12.22895	0	0
k__Bacteria|p__Proteobacteria|c__Alphaproteobacteria|o__Caulobacterales|f__Caulobacteraceae|g__Asticcacaulis	0	0	0	0	5.71807	0	0	0	0	0	0	0	0	0	0
k__Bacteria|p__Proteobacteria|c__Alphaproteobacteria|o__Caulobacterales|f__Caulobacteraceae|g__Asticcacaulis|s__Asticcacaulis_unclassified	0	0	0	0	5.71807	0	0	0	0	0	0	0	0	0	0
k__Bacteria|p__Proteobacteria|c__Alphaproteobacteria|o__Caulobacterales|f__Caulobacteraceae|g__Brevundimonas	0	0	0	0	22.92211	0	0	0	0	0	0	0	0	0	0
k__Bacteria|p__Proteobacteria|c__Alphaproteobacteria|o__Caulobacterales|f__Caulobacteraceae|g__Brevundimonas|s__Brevundimonas_unclassified	0	0	0	0	22.92211	0	0	0	0	0	0	0	0	0	0
k__Bacteria|p__Proteobacteria|c__Alphaproteobacteria|o__Caulobacterales|f__Caulobacteraceae|g__Caulobacter	0	3.12075	0	0	0	0	0	2.64493	0	0	0	0	12.22895	0	0
k__Bacteria|p__Proteobacteria|c__Alphaproteobacteria|o__Caulobacterales|f__Caulobacteraceae|g__Caulobacter|s__Caulobacter_unclassified	0	3.12075	0	0	0	0	0	2.64493	0	0	0	0	12.22895	0	0
k__Bacteria|p__Proteobacteria|c__Alphaproteobacteria|o__Rhizobiales	0	0	0	0	0	0	0	0	43.1815	0	46.87689	20.95014	8.68777	31.79555	64.7709
k__Bacteria|p__Proteobacteria|c__Alphaproteobacteria|o__Rhizobiales|f__Bradyrhizobiaceae	0	0	0	0	0	0	0	0	18.74255	0	45.36295	13.85569	6.48757	31.79555	64.7709
k__Bacteria|p__Proteobacteria|c__Alphaproteobacteria|o__Rhizobiales|f__Bradyrhizobiaceae|g__Afipia	0	0	0	0	0	0	0	0	0	0	7.94938	5.42285	6.48757	3.38686	5.55179
k__Bacteria|p__Proteobacteria|c__Alphaproteobacteria|o__Rhizobiales|f__Bradyrhizobiaceae|g__Afipia|s__Afipia_unclassified	0	0	0	0	0	0	0	0	0	0	7.94938	5.42285	6.48757	3.38686	5.55179
k__Bacteria|p__Proteobacteria|c__Alphaproteobacteria|o__Rhizobiales|f__Bradyrhizobiaceae|g__Rhodopseudomonas	0	0	0	0	0	0	0	0	18.74255	0	37.41357	8.43284	0	28.4087	59.21911
k__Bacteria|p__Proteobacteria|c__Alphaproteobacteria|o__Rhizobiales|f__Bradyrhizobiaceae|g__Rhodopseudomonas|s__Rhodopseudomonas_palustris	0	0	0	0	0	0	0	0	0	0	11.21862	7.16699	0	23.50908	44.12449
k__Bacteria|p__Proteobacteria|c__Alphaproteobacteria|o__Rhizobiales|f__Bradyrhizobiaceae|g__Rhodopseudomonas|s__Rhodopseudomonas_palustris|t__Rhodopseudomonas_palustris_unclassified	0	0	0	0	0	0	0	0	0	0	11.21862	7.16699	0	23.50908	44.12449
k__Bacteria|p__Proteobacteria|c__Alphaproteobacteria|o__Rhizobiales|f__Bradyrhizobiaceae|g__Rhodopseudomonas|s__Rhodopseudomonas_unclassified	0	0	0	0	0	0	0	0	18.74255	0	26.19494	1.26585	0	4.89961	15.09461
k__Bacteria|p__Proteobacteria|c__Alphaproteobacteria|o__Rhizobiales|f__Hyphomicrobiaceae	0	0	0	0	0	0	0	0	24.43896	0	0	0	0	0	0
k__Bacteria|p__Proteobacteria|c__Alphaproteobacteria|o__Rhizobiales|f__Hyphomicrobiaceae|g__Hyphomicrobiaceae_unclassified	0	0	0	0	0	0	0	0	24.43896	0	0	0	0	0	0
k__Bacteria|p__Proteobacteria|c__Alphaproteobacteria|o__Rhizobiales|f__Phyllobacteriaceae	0	0	0	0	0	0	0	0	0	0	1.51394	7.09445	2.2002	0	0
k__Bacteria|p__Proteobacteria|c__Alphaproteobacteria|o__Rhizobiales|f__Phyllobacteriaceae|g__Mesorhizobium	0	0	0	0	0	0	0	0	0	0	1.51394	7.09445	2.2002	0	0
k__Bacteria|p__Proteobacteria|c__Alphaproteobacteria|o__Rhizobiales|f__Phyllobacteriaceae|g__Mesorhizobium|s__Mesorhizobium_unclassified	0	0	0	0	0	0	0	0	0	0	1.51394	7.09445	2.2002	0	0
k__Bacteria|p__Proteobacteria|c__Alphaproteobacteria|o__Rhodospirillales	0	0	0	0	0	0	0	0.39046	0	0	0	0	0	0	0
k__Bacteria|p__Proteobacteria|c__Alphaproteobacteria|o__Rhodospirillales|f__Acetobacteraceae	0	0	0	0	0	0	0	0.39046	0	0	0	0	0	0	0
k__Bacteria|p__Proteobacteria|c__Alphaproteobacteria|o__Rhodospirillales|f__Acetobacteraceae|g__Roseomonas	0	0	0	0	0	0	0	0.39046	0	0	0	0	0	0	0
k__Bacteria|p__Proteobacteria|c__Alphaproteobacteria|o__Rhodospirillales|f__Acetobacteraceae|g__Roseomonas|s__Roseomonas_unclassified	0	0	0	0	0	0	0	0.39046	0	0	0	0	0	0	0
k__Bacteria|p__Proteobacteria|c__Betaproteobacteria	0	19.84701	19.07006	9.74394	7.49686	0	0	0.47032	38.38209	19.65962	43.14131	66.14575	4.69379	0	0
k__Bacteria|p__Proteobacteria|c__Betaproteobacteria|o__Burkholderiales	0	19.84701	19.07006	9.74394	7.49686	0	0	0.47032	38.38209	19.65962	43.14131	66.14575	4.69379	0	0
k__Bacteria|p__Proteobacteria|c__Betaproteobacteria|o__Burkholderiales|f__Alcaligenaceae	0	0	0	0	0	0	0	0	0	0	0	0	4.69379	0	0
k__Bacteria|p__Proteobacteria|c__Betaproteobacteria|o__Burkholderiales|f__Alcaligenaceae|g__Pusillimonas	0	0	0	0	0	0	0	0	0	0	0	0	4.69379	0	0
k__Bacteria|p__Proteobacteria|c__Betaproteobacteria|o__Burkholderiales|f__Alcaligenaceae|g__Pusillimonas|s__Pusillimonas_unclassified	0	0	0	0	0	0	0	0	0	0	0	0	4.69379	0	0
k__Bacteria|p__Proteobacteria|c__Betaproteobacteria|o__Burkholderiales|f__Burkholderiaceae	0	0	0	0	0	0	0	0	38.38209	14.05459	43.14131	66.14575	0	0	0
k__Bacteria|p__Proteobacteria|c__Betaproteobacteria|o__Burkholderiales|f__Burkholderiaceae|g__Burkholderia	0	0	0	0	0	0	0	0	38.38209	10.13353	43.14131	66.14575	0	0	0
k__Bacteria|p__Proteobacteria|c__Betaproteobacteria|o__Burkholderiales|f__Burkholderiaceae|g__Burkholderia|s__Burkholderia_unclassified	0	0	0	0	0	0	0	0	38.38209	10.13353	43.14131	66.14575	0	0	0
k__Bacteria|p__Proteobacteria|c__Betaproteobacteria|o__Burkholderiales|f__Burkholderiaceae|g__Cupriavidus	0	0	0	0	0	0	0	0	0	3.92106	0	0	0	0	0
k__Bacteria|p__Proteobacteria|c__Betaproteobacteria|o__Burkholderiales|f__Burkholderiaceae|g__Cupriavidus|s__Cupriavidus_unclassified	0	0	0	0	0	0	0	0	0	3.92106	0	0	0	0	0
k__Bacteria|p__Proteobacteria|c__Betaproteobacteria|o__Burkholderiales|f__Burkholderiales_noname	0	19.84701	19.07006	9.74394	5.19824	0	0	0	0	0	0	0	0	0	0
k__Bacteria|p__Proteobacteria|c__Betaproteobacteria|o__Burkholderiales|f__Burkholderiales_noname|g__Thiomonas	0	19.84701	19.07006	9.74394	5.19824	0	0	0	0	0	0	0	0	0	0
k__Bacteria|p__Proteobacteria|c__Betaproteobacteria|o__Burkholderiales|f__Burkholderiales_noname|g__Thiomonas|s__Thiomonas_unclassified	0	19.84701	19.07006	9.74394	5.19824	0	0	0	0	0	0	0	0	0	0
k__Bacteria|p__Proteobacteria|c__Betaproteobacteria|o__Burkholderiales|f__Comamonadaceae	0	0	0	0	2.29862	0	0	0	0	5.60503	0	0	0	0	0
k__Bacteria|p__Proteobacteria|c__Betaproteobacteria|o__Burkholderiales|f__Comamonadaceae|g__Polaromonas	0	0	0	0	1.91052	0	0	0	0	0	0	0	0	0	0
k__Bacteria|p__Proteobacteria|c__Betaproteobacteria|o__Burkholderiales|f__Comamonadaceae|g__Polaromonas|s__Polaromonas_unclassified	0	0	0	0	1.91052	0	0	0	0	0	0	0	0	0	0
k__Bacteria|p__Proteobacteria|c__Betaproteobacteria|o__Burkholderiales|f__Comamonadaceae|g__Variovorax	0	0	0	0	0.38809	0	0	0	0	5.60503	0	0	0	0	0
k__Bacteria|p__Proteobacteria|c__Betaproteobacteria|o__Burkholderiales|f__Comamonadaceae|g__Variovorax|s__Variovorax_unclassified	0	0	0	0	0.38809	0	0	0	0	5.60503	0	0	0	0	0
k__Bacteria|p__Proteobacteria|c__Betaproteobacteria|o__Burkholderiales|f__Oxalobacteraceae	0	0	0	0	0	0	0	0.47032	0	0	0	0	0	0	0
k__Bacteria|p__Proteobacteria|c__Betaproteobacteria|o__Burkholderiales|f__Oxalobacteraceae|g__Massilia	0	0	0	0	0	0	0	0.47032	0	0	0	0	0	0	0
k__Bacteria|p__Proteobacteria|c__Betaproteobacteria|o__Burkholderiales|f__Oxalobacteraceae|g__Massilia|s__Massilia_unclassified	0	0	0	0	0	0	0	0.47032	0	0	0	0	0	0	0
k__Bacteria|p__Proteobacteria|c__Deltaproteobacteria	0	0	0	0	0	0	0.62286	0	0	0	0	0	0	0	0
k__Bacteria|p__Proteobacteria|c__Deltaproteobacteria|o__Myxococcales	0	0	0	0	0	0	0.62286	0	0	0	0	0	0	0	0
k__Bacteria|p__Proteobacteria|c__Deltaproteobacteria|o__Myxococcales|f__Polyangiaceae	0	0	0	0	0	0	0.62286	0	0	0	0	0	0	0	0
k__Bacteria|p__Proteobacteria|c__Deltaproteobacteria|o__Myxococcales|f__Polyangiaceae|g__Sorangium	0	0	0	0	0	0	0.62286	0	0	0	0	0	0	0	0
k__Bacteria|p__Proteobacteria|c__Deltaproteobacteria|o__Myxococcales|f__Polyangiaceae|g__Sorangium|s__Sorangium_cellulosum	0	0	0	0	0	0	0.62286	0	0	0	0	0	0	0	0
k__Bacteria|p__Proteobacteria|c__Deltaproteobacteria|o__Myxococcales|f__Polyangiaceae|g__Sorangium|s__Sorangium_cellulosum|t__Sorangium_cellulosum_unclassified	0	0	0	0	0	0	0.62286	0	0	0	0	0	0	0	0
k__Bacteria|p__Proteobacteria|c__Gammaproteobacteria	0	0	0	0	0	0	0	0	0	64.23605	0	0	14.03451	25.23957	0
k__Bacteria|p__Proteobacteria|c__Gammaproteobacteria|o__Enterobacteriales	0	0	0	0	0	0	0	0	0	29.80229	0	0	0	0	0
k__Bacteria|p__Proteobacteria|c__Gammaproteobacteria|o__Enterobacteriales|f__Enterobacteriaceae	0	0	0	0	0	0	0	0	0	29.80229	0	0	0	0	0
k__Bacteria|p__Proteobacteria|c__Gammaproteobacteria|o__Enterobacteriales|f__Enterobacteriaceae|g__Serratia	0	0	0	0	0	0	0	0	0	29.80229	0	0	0	0	0
k__Bacteria|p__Proteobacteria|c__Gammaproteobacteria|o__Enterobacteriales|f__Enterobacteriaceae|g__Serratia|s__Serratia_marcescens	0	0	0	0	0	0	0	0	0	29.80229	0	0	0	0	0
k__Bacteria|p__Proteobacteria|c__Gammaproteobacteria|o__Enterobacteriales|f__Enterobacteriaceae|g__Serratia|s__Serratia_marcescens|t__Serratia_marcescens_unclassified	0	0	0	0	0	0	0	0	0	29.80229	0	0	0	0	0
k__Bacteria|p__Proteobacteria|c__Gammaproteobacteria|o__Pseudomonadales	0	0	0	0	0	0	0	0	0	34.43376	0	0	14.03451	25.23957	0
k__Bacteria|p__Proteobacteria|c__Gammaproteobacteria|o__Pseudomonadales|f__Pseudomonadaceae	0	0	0	0	0	0	0	0	0	34.43376	0	0	14.03451	25.23957	0
k__Bacteria|p__Proteobacteria|c__Gammaproteobacteria|o__Pseudomonadales|f__Pseudomonadaceae|g__Pseudomonas	0	0	0	0	0	0	0	0	0	34.43376	0	0	14.03451	25.23957	0
k__Bacteria|p__Proteobacteria|c__Gammaproteobacteria|o__Pseudomonadales|f__Pseudomonadaceae|g__Pseudomonas|s__Pseudomonas_putida	0	0	0	0	0	0	0	0	0	9.04737	0	0	0	0	0
k__Bacteria|p__Proteobacteria|c__Gammaproteobacteria|o__Pseudomonadales|f__Pseudomonadaceae|g__Pseudomonas|s__Pseudomonas_putida|t__Pseudomonas_putida_unclassified	0	0	0	0	0	0	0	0	0	9.04737	0	0	0	0	0
k__Bacteria|p__Proteobacteria|c__Gammaproteobacteria|o__Pseudomonadales|f__Pseudomonadaceae|g__Pseudomonas|s__Pseudomonas_unclassified	0	0	0	0	0	0	0	0	0	25.38639	0	0	14.03451	25.23957	0
